Introduction to academiadates • academiadates
…
Creation

library(academiadates)
library(tsibble)
library(tsibbledata) # an example dataset
library(dplyr)

We have the following dataset from tsibbledata which
is monthly data with counts of Australian livestock used for food.

aus_livestock
#> # A tsibble: 29,364 x 4 [1M]
#> # Key:       Animal, State [54]
#>       Month Animal                     State                        Count
#>       <mth> <fct>                      <fct>                        <dbl>
#>  1 1976 Jul Bulls, bullocks and steers Australian Capital Territory  2300
#>  2 1976 Aug Bulls, bullocks and steers Australian Capital Territory  2100
#>  3 1976 Sep Bulls, bullocks and steers Australian Capital Territory  2100
#>  4 1976 Oct Bulls, bullocks and steers Australian Capital Territory  1900
#>  5 1976 Nov Bulls, bullocks and steers Australian Capital Territory  2100
#>  6 1976 Dec Bulls, bullocks and steers Australian Capital Territory  1800
#>  7 1977 Jan Bulls, bullocks and steers Australian Capital Territory  1800
#>  8 1977 Feb Bulls, bullocks and steers Australian Capital Territory  1900
#>  9 1977 Mar Bulls, bullocks and steers Australian Capital Territory  2700
#> 10 1977 Apr Bulls, bullocks and steers Australian Capital Territory  2300
#> # ℹ 29,354 more rows
…
# trimesters
aus_t <- aus_livestock |> 
    as_tibble() |>
    mutate(Trimester = yeartrimester(Month, academic_start = 7)) |>
    summarize(
        Count = sum(Count),
        .by   = c(Trimester, Animal, State)
    ) |> 
    as_tsibble(index = Trimester, key = c(Animal, State))

aus_q
#> # A tsibble: 9,788 x 4 [1Q]
#> # Key:       Animal, State [54]
#>    Quarter Animal                     State                        Count
#>      <qtr> <fct>                      <fct>                        <dbl>
#>  1 1977 Q1 Bulls, bullocks and steers Australian Capital Territory  6500
#>  2 1977 Q2 Bulls, bullocks and steers Australian Capital Territory  5800
#>  3 1977 Q3 Bulls, bullocks and steers Australian Capital Territory  6400
#>  4 1977 Q4 Bulls, bullocks and steers Australian Capital Territory  7700
#>  5 1978 Q1 Bulls, bullocks and steers Australian Capital Territory  7000
#>  6 1978 Q2 Bulls, bullocks and steers Australian Capital Territory  6900
#>  7 1978 Q3 Bulls, bullocks and steers Australian Capital Territory  7800
#>  8 1978 Q4 Bulls, bullocks and steers Australian Capital Territory  8500
#>  9 1979 Q1 Bulls, bullocks and steers Australian Capital Territory  7900
#> 10 1979 Q2 Bulls, bullocks and steers Australian Capital Territory  7900
#> # ℹ 9,778 more rows

aus_t
#> # A tsibble: 7,368 x 4 [1T]
#> # Key:       Animal, State [54]
#>    Trimester Animal                     State                        Count
#>        <tri> <fct>                      <fct>                        <dbl>
#>  1   1977 T1 Bulls, bullocks and steers Australian Capital Territory  8400
#>  2   1977 T2 Bulls, bullocks and steers Australian Capital Territory  7600
#>  3   1977 T3 Bulls, bullocks and steers Australian Capital Territory 10400
#>  4   1978 T1 Bulls, bullocks and steers Australian Capital Territory  9300
#>  5   1978 T2 Bulls, bullocks and steers Australian Capital Territory  9600
#>  6   1978 T3 Bulls, bullocks and steers Australian Capital Territory 11300
#>  7   1979 T1 Bulls, bullocks and steers Australian Capital Territory 10700
#>  8   1979 T2 Bulls, bullocks and steers Australian Capital Territory 10100
#>  9   1979 T3 Bulls, bullocks and steers Australian Capital Territory  8000
#> 10   1980 T1 Bulls, bullocks and steers Australian Capital Territory  7300
#> # ℹ 7,358 more rows
…
